author,created_utc,flair,score,selftext,subreddit,title,upvote_ratio
Robot_of_Sherwood,2016-12-07 21:13:44,,9.0," 

### Expected Earnings Reports

|Symbol|Name|EPS Estimate|When|
|------|----|------------|----|
| AVGO|Broadcom Ltd|N/A|After Market Close|
| CHKE|Cherokee Inc|-0.02|Before Market Open|
| CIEN|Ciena Corp|0.46|Before Market Open|
|  COO|Cooper Companies Inc|2.25|4:15 pm ET|
| DEST|Destination Maternity Corp|N/A|After Market Close|
| DLHC|DLH Holdings Corp|N/A|Before Market Open|
| DLTH|Duluth Holdings Inc|0|After Market Close|
| DTEA|DavidsTea Inc|-0.06|After Market Close|
| DVMT|Dell Technologies Inc|N/A|Before Market Open|
|  ENZ|Enzo Biochem Inc|-0.05|After Market Close|
| FNSR|Finisar Corp|0.46|After Market Close|
| FRED|Fred's Inc|-0.18|After Market Close|
| GTIM|Good Times Restaurants Inc|-0.03|Time Not Supplied|
|  HOV|Hovnanian Enterprises Inc|0.13|Before Market Open|
| KLXI|KLX Inc|0.26|Before Market Open|
| LAYN|Layne Christensen Co|-0.2|After Market Close|
|  MEI|Methode Electronics Inc|0.55|Before Market Open|
|  NCS|NCI Building Systems Inc|0.31|After Market Close|
|  ODC|Oil-Dri Corporation of America|N/A|After Market Close|
| OHRP|OHR Pharmaceutical Inc|-0.28|After Market Close|
| ONCS|OncoSec Medical Inc|-0.37|Before Market Open|
|  PHX|Panhandle Oil and Gas Inc|N/A|After Market Close|
|   RH|Restoration Hardware Holdings Inc|0.16|After Market Close|
| SAIC|Science Applications International Corp|0.84|Before Market Open|
| SHLD|Sears Holdings Corp|-4.06|Before Market Open|
| SKIS|Peak Resorts Inc|-0.59|Before Market Open|
| SOFO|Sonic Foundry Inc|N/A|After Market Close|
|  TAX|Liberty Tax Inc|-0.71|Before Market Open|
|  TTC|Toro Co|0.21|Before Market Open|
| VNCE|Vince Holding Corp|0.08|Before Market Open|
| XTLY|Xactly Corp|-0.13|After Market Close|
|  YGE|Yingli Green Energy Holding Co Ltd|-1.39|Before Market Open|

---

^Standard ^disclaimer: ^The ^content ^in ^this ^thread ^is ^for ^information ^and ^illustrative ^purposes ^only ^and ^should ^not ^be ^regarded ^as ^investment ^advice ^or ^as ^a ^recommendation ^of ^any ^particular ^security ^or ^course ^of ^action. ^Opinions ^expressed ^herein ^are ^the ^opinions ^of ^the ^poster ^and ^are ^subject ^to ^change ^without ^notice. ^Reasonable ^people ^may ^disagree ^about ^the ^opinions ^expressed ^herein. ^In ^the ^event ^any ^of ^the ^assumptions ^used ^herein ^do ^not ^prove ^to ^be ^true, ^results ^are ^likely ^to ^vary ^substantially. ^All ^investments ^entail ^risks. ^There ^is ^no ^guarantee ^that ^investment ^strategies ^will ^achieve ^the ^desired ^results ^under ^all ^market ^conditions ^and ^each ^investor ^should ^evaluate ^their ^ability ^to ^invest ^for ^a ^long ^term ^especially ^during ^periods ^of ^a ^market ^downturn. ^Have ^a ^nice ^day.
",RobinHood,Daily Stock Discussion - 12/08/2016,
rondamack,2017-03-11 19:05:15,Ticker Talk,9.0,"Hello!

VNCE is the ticker. For some reason, this stock is getting pounded and I can't figure it out.

A glance at the financials shows a healthy company. Debt is consistently going down. Net receivables is going down year over year but the company is maintaining positive earnings and healthy assets. 

Liabilities are on a year over year decline. 

The only issue I see, and it is a major one is a large year over year decline in Operating Income. Although, that does not explain the massive selling, I don't usually see such a low RSI for such a long timeline.


Any thoughts appreciated.",RobinHood,VNCE --- This stock does not make sense. What am I missing?,
[deleted],2017-05-02 17:44:51,,1.0,[removed],wallstreetbets,"VNCE, I hate you.",
Robot_of_Sherwood,2017-12-05 11:00:23,,16.0,"## Important Links

- Official /r/Robinhood Discord Server: [https://discord.gg/Robinhood](https://discord.gg/Robinhood) (It's where we are most of the time)
- [Holiday 2017 Signup Referal Thread](https://www.reddit.com/r/RobinHood/comments/7do1j4/rrobinhood_referafriend_thread_holiday_2017/) - Add your link!

- /u/myracksarelettuce's [DD Depository](https://docs.google.com/document/d/1X4kp8ZmNPDxagU1LGob0EnUjQsz5dGlH4Bn54yaJ3l0)
- [mfun98's DD Request Thread](https://www.reddit.com/r/RobinHood/comments/6cnetu/new_dd_request_thread/)
- [Guide for new investors](https://www.reddit.com/r/robinhood/wiki/basics)
- /u/goldygofar's [Dividend Stripping: The Basics](https://www.reddit.com/r/obinhood/comments/68dai0/dividend_stripping_an_easy_way_to_make_money/)



---

### Tuesday the  5th of December

#### Ex-div

AME, AVT, AVY, DCI, DEA, DHF, DXC, FORR, GHL, HSNI, ICL, KRNY, KRO, KSS, LRCX, NNA, NPO, ODFL, PAHC, PJT, REIS, SLB, TBNK, TCAP, TIVO, VHI, WEBK

#### Earnings Reports

AVAV, AZO, BAA, BMO, BNED, BOBE, BSTG, DLNG, EMKR, FNKO, FRAN, GIII, HDS, HDYN, HQY, HX, IDT, JILL, JMEI, KEQU, LAYN, LE, LQDT, NCTY, OXM, PLAY, POWL, RH, TOL, UNXLQ, VEEV, VNET

---

### Wednesday the  6th of December

#### Ex-div

AAT, BBY, BF.A, BF.B, FNV, HAL, LUV, MOS, MPW, MTEX, NRIM, PBIP, PTEN, PX, SQM, TVPT, VSH

#### Earnings Reports

ABIL, AEO, AGX, ALOG, AVGO, BF.A, BF.B, BLBD, CHKE, CLMT, CMTL, DLHC, EHIC, FRED, GEF, GEF.B, HRB, ICON, IEC, IMKTA, JW.A, JW.B, KEYS, KFY, KLXI, LEE, LULU, MIND, MNTX, NCS, NXEO, OKTA, OLLI, PARNF, RENN, RMAX, SCWX, SEAC, SGU, SIGM, SMMT, SRSCQ, TCCO, TLRD, VRA, VRNT, ZX

---

### Thursday the  7th of December

#### Ex-div

ADP, AIG, ARII, AUBN, BDX, BGC, CASH, CBFV, CME, CNI, DKS, EAT, ESBK, FAF, FANH, FBNK, FFIC, FGP, FMNB, G, GAB, GARS, GDL, GM, GNL, GPC, HIHO, ICBK, IPCC, IR, ITT, KFRC, KMB, LANC, LEA, MANT, MBWM, MFSF, NEM, NOV, NTIC, ORIT, OUT, PCH, PEG, PFS, PPL, RF, SNR, SPTN, STFC, TGNA, TPR, UBCP, UBSI, UMBF, UNF, VFC, WHG, WMB, WMT, WR, WRI, WSBC

#### Earnings Reports

ACMR, ALCO, AOBC, APDN, CHNR, CIEN, CLDR, CMD, CONN, COO, CSBR, DEST, DG, DLTH, DTEA, DVMT, EYE, FGP, FIZZ, FNSR, FSCT, GENC, GLBS, GMS, GTIM, HOFT, JKS, MCC, MEI, MLNK, MSB, MTN, PIXY, PLM, SAIC, SKIS, SOFO, TANH, TAX, TTC, UNFI, VLGEA, VNCE, YGE

---

^Standard ^disclaimer: ^The ^content ^in ^this ^thread ^is ^for ^information ^and ^illustrative ^purposes ^only ^and ^should ^not ^be ^regarded ^as ^investment ^advice ^or ^as ^a ^recommendation ^of ^any ^particular ^security ^or ^course ^of ^action. ^Opinions ^expressed ^herein ^are ^the ^opinions ^of ^the ^poster ^and ^are ^subject ^to ^change ^without ^notice. ^Reasonable ^people ^may ^disagree ^about ^the ^opinions ^expressed ^herein. ^In ^the ^event ^any ^of ^the ^assumptions ^used ^herein ^do ^not ^prove ^to ^be ^true, ^results ^are ^likely ^to ^vary ^substantially. ^All ^investments ^entail ^risks. ^There ^is ^no ^guarantee ^that ^investment ^strategies ^will ^achieve ^the ^desired ^results ^under ^all ^market ^conditions ^and ^each ^investor ^should ^evaluate ^their ^ability ^to ^invest ^for ^a ^long ^term ^especially ^during ^periods ^of ^a ^market ^downturn. ^Have ^a ^nice ^day.
",RobinHood,Daily Stock Discussion Thread - 12/05/17,
Robot_of_Sherwood,2018-04-10 10:00:25,,4.0,"
Thinking of joining Robinhood? Use one of [our referral links](https://www.reddit.com/r/RobinHood/comments/7tsmt0/winter_2018_crypto_referral_drive_thread/) and you'll get a free share! /spam

## Important Links

- [How to Join the Stock Picking Game and Current Results](https://www.reddit.com/r/RobinHood/wiki/game/2018/detail)
- Official /r/Robinhood Discord Server: [https://discord.gg/Robinhood](https://discord.gg/Robinhood) (It's where we are most of the time)



---

### Tuesday the 10th of April

### Ex-div

AMT, CIO, CPB, DHF, ETH, GPS, MOV, RTN, TSE, WGO

### Earnings Reports

AGX, BKSC, CNBKA, EXFO, FWP, HCSG, JMBA, LAYN, LKM, MFCB, MIND, MJNA, MSM, OSN, PARNF, SMPL

---

### Wednesday the 11th of April

### Ex-div

ACN, ACV, AET, BKU, BSBR, ECC, EHT, EVF, EXP, HPF, HPI, HPS, HTD, IMKTA, JOUT, KAI, LGI, LOR, NCV, NCZ, PCI, PCK, PCN, PCQ, PDI, PFN, PGP, PKO, PMF, PML, PMX, PNF, PNI, PTY, PYN, PZC, TAX, VGI, WSBF, ZF, ZTR

### Earnings Reports

BBBY, FAST, FFHL, GSUM, HQCL, IPCI, ORMP, RELL, SHOS, SMMT, TISA, TRX

---

### Thursday the 12th of April

### Ex-div

AAME, ABBV, ABT, AFG, AGC, ARR, AVK, BELFA, BELFB, BKE, CAC, CBRL, CCD, CGO, CHCO, CHI, CHW, CNSL, CSQ, DEX, FCX, GBAB, GD, GGM, GGP, GHY, GIM, GOF, HCC, ISD, JFR, JGH, JHB, JHD, JHY, JLS, JMF, JMLP, JMT, JPC, JPI, JPS, JQC, JRI, JRO, JSD, KED, KIO, KMF, KYE, KYN, LEO, LSI, MAA, MAS, MEI, MN, NAD, NBB, NBD, NCB, NEA, NEV, NHA, NID, NIQ, NJV, NKG, NKX, NMS, NMZ, NRK, NSL, NUV, NUW, NVG, NWFL, NXJ, NXR, NYV, NZF, OZRK, PDCO, PGZ, PKBK, PKI, PMT, PNR, RAVN, RIV, RVSB, SAIC, SHLM, SJR, SNX, SRF, SRV, SWCH, SZC, TOL, TRN, WIA, WIW

### Earnings Reports

APOG, BLK, CBSH, CNTF, DAL, DEST, DGLY, DXTR, ELP, HIFS, JRJC, LEDS, LINU, MDXG, NTIC, ONP, ORPN, OZRK, PLG, PPIH, RAD, ROSG, SIGM, SJR, SKY, SOL, STRM, VNCE, WAFD

---

^Standard ^disclaimer: ^The ^content ^in ^this ^thread ^is ^for ^information ^and ^illustrative ^purposes ^only ^and ^should ^not ^be ^regarded ^as ^investment ^advice ^or ^as ^a ^recommendation ^of ^any ^particular ^security ^or ^course ^of ^action. ^Opinions ^expressed ^herein ^are ^the ^opinions ^of ^the ^poster ^and ^are ^subject ^to ^change ^without ^notice. ^Reasonable ^people ^may ^disagree ^about ^the ^opinions ^expressed ^herein. ^In ^the ^event ^any ^of ^the ^assumptions ^used ^herein ^do ^not ^prove ^to ^be ^true, ^results ^are ^likely ^to ^vary ^substantially. ^All ^investments ^entail ^risks. ^There ^is ^no ^guarantee ^that ^investment ^strategies ^will ^achieve ^the ^desired ^results ^under ^all ^market ^conditions ^and ^each ^investor ^should ^evaluate ^their ^ability ^to ^invest ^for ^a ^long ^term ^especially ^during ^periods ^of ^a ^market ^downturn. ^Have ^a ^nice ^day.
",RobinHood,"Daily Stock Discussion Thread - April 10th, 2018",
Robot_of_Sherwood,2018-04-11 10:00:29,,9.0,"
Thinking of joining Robinhood? Use one of [our referral links](https://www.reddit.com/r/RobinHood/comments/7tsmt0/winter_2018_crypto_referral_drive_thread/) and you'll get a free share! /spam

## Important Links

- [How to Join the Stock Picking Game and Current Results](https://www.reddit.com/r/RobinHood/wiki/game/2018/detail)
- Official /r/Robinhood Discord Server: [https://discord.gg/Robinhood](https://discord.gg/Robinhood) (It's where we are most of the time)



---

### Wednesday the 11th of April

### Ex-div

ACN, ACV, AET, BKU, BSBR, ECC, EHT, EVF, EXP, HPF, HPI, HPS, HTD, IMKTA, JOUT, KAI, LGI, LOR, NCV, NCZ, PCI, PCK, PCN, PCQ, PDI, PFN, PGP, PKO, PMF, PML, PMX, PNF, PNI, PTY, PYN, PZC, TAX, VGI, WSBF, ZF, ZTR

### Earnings Reports

BBBY, FAST, HQCL, IPCI, MFCB, NCTY, ORMP, RELL, SMMT, TRX

---

### Thursday the 12th of April

### Ex-div

AAME, ABBV, ABT, AFG, AGC, ARR, AVK, BELFA, BELFB, BKE, CAC, CBRL, CCD, CGO, CHCO, CHI, CHW, CNSL, CSQ, DEX, FCX, GBAB, GD, GGM, GGP, GHY, GIM, GOF, HCC, ISD, JFR, JGH, JHB, JHD, JHY, JLS, JMF, JMLP, JMT, JPC, JPI, JPS, JQC, JRI, JRO, JSD, KED, KIO, KMF, KYE, KYN, LEO, LSI, MAA, MAS, MEI, MN, NAD, NBB, NBD, NCB, NEA, NEV, NHA, NID, NIQ, NJV, NKG, NKX, NMS, NMZ, NRK, NSL, NUV, NUW, NVG, NWFL, NXJ, NXR, NYV, NZF, OZRK, PDCO, PGZ, PKBK, PKI, PMT, PNR, RAVN, RIV, RVSB, SAIC, SHLM, SJR, SNX, SRF, SRV, SWCH, SZC, TOL, TRN, WIA, WIW

### Earnings Reports

AGX, APOG, BLK, CBSH, CIFS, CNTF, DAL, DEST, DGLY, DXTR, ELP, FWP, GSUM, HIFS, JRJC, LEDS, LINU, MDXG, NTIC, ONP, ORPN, OZRK, PLG, PPIH, RAD, ROSG, SHOS, SIGM, SJR, SKY, SOL, STRM, VNCE, WAFD

---

### Friday the 13th of April

### Ex-div

AGI, ALG, ARES, BAF, BBF, BBK, BBN, BCX, BDJ, BFK, BFO, BFS, BFZ, BGR, BGT, BGY, BHK, BIT, BJZ, BKK, BLH, BLW, BME, BNJ, BNY, BOE, BPK, BPT, BQH, BSD, BSE, BST, BTA, BTT, BTZ, BUI, BYM, CII, CNOB, EBF, EDF, EDI, EGF, EGIF, EME, EOG, FRA, FUNC, GDV, GGG, GNT, GROW, GUT, GWRS, HRL, HYT, IVH, KWR, MCA, MEN, MGRC, MHD, MMD, MNE, MUE, MUI, MUS, MVO, MZF, OAKS, PLCE, PNC, RGCO, SBR, TSLF, VIV, WERN, WSO, WSO.B

### Earnings Reports

C, CLDC, FHN, FRC, HPHW, INFY, JPM, MICT, MSB, PIXY, PNC, WFC

---

^Standard ^disclaimer: ^The ^content ^in ^this ^thread ^is ^for ^information ^and ^illustrative ^purposes ^only ^and ^should ^not ^be ^regarded ^as ^investment ^advice ^or ^as ^a ^recommendation ^of ^any ^particular ^security ^or ^course ^of ^action. ^Opinions ^expressed ^herein ^are ^the ^opinions ^of ^the ^poster ^and ^are ^subject ^to ^change ^without ^notice. ^Reasonable ^people ^may ^disagree ^about ^the ^opinions ^expressed ^herein. ^In ^the ^event ^any ^of ^the ^assumptions ^used ^herein ^do ^not ^prove ^to ^be ^true, ^results ^are ^likely ^to ^vary ^substantially. ^All ^investments ^entail ^risks. ^There ^is ^no ^guarantee ^that ^investment ^strategies ^will ^achieve ^the ^desired ^results ^under ^all ^market ^conditions ^and ^each ^investor ^should ^evaluate ^their ^ability ^to ^invest ^for ^a ^long ^term ^especially ^during ^periods ^of ^a ^market ^downturn. ^Have ^a ^nice ^day.
",RobinHood,"Daily Stock Discussion Thread - April 11th, 2018",
Robot_of_Sherwood,2018-04-12 10:00:27,,12.0,"
Thinking of joining Robinhood? Use one of [our referral links](https://www.reddit.com/r/RobinHood/comments/7tsmt0/winter_2018_crypto_referral_drive_thread/) and you'll get a free share! /spam

## Important Links

- [How to Join the Stock Picking Game and Current Results](https://www.reddit.com/r/RobinHood/wiki/game/2018/detail)
- Official /r/Robinhood Discord Server: [https://discord.gg/Robinhood](https://discord.gg/Robinhood) (It's where we are most of the time)



---

### Thursday the 12th of April

### Ex-div

AAME, ABBV, ABT, AFG, AGC, ARR, AVK, BELFA, BELFB, BKE, CAC, CBRL, CCD, CGO, CHCO, CHI, CHW, CNSL, CSQ, DEX, FCX, GBAB, GD, GGM, GGP, GHY, GIM, GOF, HCC, ISD, JFR, JGH, JHB, JHD, JHY, JLS, JMF, JMLP, JMT, JPC, JPI, JPS, JQC, JRI, JRO, JSD, KED, KIO, KMF, KYE, KYN, LEO, LSI, MAA, MAS, MEI, MN, NAD, NBB, NBD, NCB, NEA, NEV, NHA, NID, NIQ, NJV, NKG, NKX, NMS, NMZ, NRK, NSL, NUV, NUW, NVG, NWFL, NXJ, NXR, NYV, NZF, OZRK, PDCO, PGZ, PKBK, PKI, PMT, PNR, RAVN, RIV, RVSB, SAIC, SHLM, SJR, SNX, SRF, SRV, SWCH, SZC, TOL, TRN, WIA, WIW

### Earnings Reports

APOG, BLK, CBSH, CIFS, DAL, DGLY, ELP, FWP, HIFS, LEDS, LINU, MDXG, NTIC, ONP, ORPN, OZRK, PPIH, RAD, ROSG, SHOS, SJR, SKY, VNCE

---

### Friday the 13th of April

### Ex-div

AGI, ALG, ARES, BAF, BBF, BBK, BBN, BCX, BDJ, BFK, BFO, BFS, BFZ, BGR, BGT, BGY, BHK, BIT, BJZ, BKK, BLH, BLW, BME, BNJ, BNY, BOE, BPK, BPT, BQH, BSD, BSE, BST, BTA, BTT, BTZ, BUI, BYM, CII, CNOB, EBF, EDF, EDI, EGF, EGIF, EME, EOG, FRA, FUNC, GDV, GGG, GNT, GROW, GUT, GWRS, HRL, HYT, IVH, KWR, MCA, MEN, MGRC, MHD, MMD, MNE, MUE, MUI, MUS, MVO, MZF, OAKS, PLCE, PNC, RGCO, SBR, TSLF, VIV, WERN, WSO, WSO.B

### Earnings Reports

C, FHN, FRC, INFY, JPM, MICT, MSB, PIXY, PNC, WFC

---

^Standard ^disclaimer: ^The ^content ^in ^this ^thread ^is ^for ^information ^and ^illustrative ^purposes ^only ^and ^should ^not ^be ^regarded ^as ^investment ^advice ^or ^as ^a ^recommendation ^of ^any ^particular ^security ^or ^course ^of ^action. ^Opinions ^expressed ^herein ^are ^the ^opinions ^of ^the ^poster ^and ^are ^subject ^to ^change ^without ^notice. ^Reasonable ^people ^may ^disagree ^about ^the ^opinions ^expressed ^herein. ^In ^the ^event ^any ^of ^the ^assumptions ^used ^herein ^do ^not ^prove ^to ^be ^true, ^results ^are ^likely ^to ^vary ^substantially. ^All ^investments ^entail ^risks. ^There ^is ^no ^guarantee ^that ^investment ^strategies ^will ^achieve ^the ^desired ^results ^under ^all ^market ^conditions ^and ^each ^investor ^should ^evaluate ^their ^ability ^to ^invest ^for ^a ^long ^term ^especially ^during ^periods ^of ^a ^market ^downturn. ^Have ^a ^nice ^day.
",RobinHood,"Daily Stock Discussion Thread - April 12th, 2018",
Robot_of_Sherwood,2018-06-13 10:01:07,,12.0,"
Thinking of joining Robinhood? Use one of [our referral links](https://www.reddit.com/r/RobinHood/comments/7tsmt0/winter_2018_crypto_referral_drive_thread/) and you'll get a free share! /spam

## Important Links

- [How to Join the Stock Picking Game and Current Results](https://www.reddit.com/r/RobinHood/wiki/game/2018/detail)
- Official /r/Robinhood Discord Server: [https://discord.gg/Robinhood](https://discord.gg/Robinhood) (It's where we are most of the time)



---

### Wednesday the 13th of June

### Ex-div

AAT, AIG, BAH, BBY, DBL, DSL, EVC, FISI, FNV, GG, GLNG, HMN, ICE, JJSF, LEO, MCY, MDU, MPW, OMC, PLD, ROIC, SEIC, TEF

### Earnings Reports

ABIL, ABLX, AKER, ANW, ARCT, ATLS, BITA, CRWS, CULP, DAC, GIGA, GSUM, ITUS, JMBA, KFY, OHGI, ROX, SHIP, SNOA, TISA, TLRD, XPLR, ZDGE

---

### Thursday the 14th of June

### Ex-div

AGC, AGM, ALB, ALLE, ALOT, AME, AMH, APTS, ARCC, ARES, ARR, ASR, ATRI, AVK, AVX, BAF, BANC, BBBY, BBF, BBK, BBN, BCE, BCX, BDJ, BFK, BFO, BFY, BFZ, BGG, BGR, BGT, BGY, BHK, BHV, BIG, BIT, BJZ, BKK, BLE, BLH, BLW, BME, BNY, BOE, BPK, BQH, BR, BSD, BSE, BST, BTA, BTT, BTZ, BUI, BXMX, BXS, BYM, BZM, CAE, CARO, CBU, CCI, CFFI, CFFN, CII, CIZN, CMA, CMCT, CMFN, CNMD, CNQ, COHU, CPK, CRWS, CSFL, CTBI, CVE, CWH, DEX, DIAX, DLR, DPG, DPZ, DVN, ECA, EE, EFSC, EGF, EMN, ENS, ESND, ESRT, EXR, FBSS, FFG, FFIN, FIS, FLXS, FNF, FRA, GAB, GATX, GBAB, GDL, GDV, GGM, GHY, GILD, GIM, GLPI, GNT, GOF, GPK, GPN, GRX, GUT, GWRS, HCFT, HI, HOFT, HRTG, HUN, HWBK, HYT, IIIN, INFY, IPCC, IRET, IRM, ISD, ITIC, IVH, JCE, JCS, JDD, JE, JFR, JGH, JHB, JHD, JHY, JLS, JMT, JPC, JPI, JPS, JQC, JRI, JRO, JRS, JSD, JTA, JTD, KBR, KIO, KMG, KNL, KO, LAMR, LEG, M, MAV, MAXR, MBFI, MBIN, MCA, MCN, MEN, MEOH, MGU, MHD, MHI, MMD, MNE, MO, MRCC, MRK, MRTN, MSI, MSL, MSP, MUE, MUI, MUS, MYE, MZF, NAD, NBB, NBD, NCB, NDAQ, NEA, NEU, NEV, NHA, NID, NIQ, NJR, NJV, NKG, NKX, NMFC, NMS, NMZ, NRK, NSA, NSL, NUV, NUW, NVG, NWE, NX, NXJ, NXR, NXRT, NYV, NZF, OCSI, OCSL, OLBK, OLED, OMI, OPP, OXSQ, PB, PFBI, PHD, PHT, PKG, POL, QCRH, QQQX, QTRH, RBCAA, RNR, RNST, RRC, RRR, RWT, RYAM, RYN, SAH, SALM, SAMG, SAR, SBR, SCI, SELF, SFL, SFNC, SJR, SLCA, SMMF, SNDR, SOHO, SPTN, SPXX, SRF, SRV, SSP, STC, STRT, SZC, TCBK, TCO, TCPC, TCRD, TDS, TECK, TG, THFF, TIER, TMO, TROW, TSLX, TXT, UCBI, UE, UGI, UNTY, UTMD, VIA, VIAB, VLY, WIA, WIW, WOR, WPP, WRB, WRE, WU, WWE, WYND, XEL, XL

### Earnings Reports

ACST, ADBE, BBOX, CHKE, DEST, FFHL, FNSR, FRED, HNGR, JBL, LPG, MIK, MPAA, ONCS, PARNF, SECO, SEED, SENEB, SIGM, TNTR, VNCE, YGE

---

### Friday the 15th of June

### Ex-div

AFT, AIF, AIMC, APH, BKCC, CAL, CHMG, CHS, DTE, EDF, EDI, EGIF, FCNCA, GBL, GE, GEF, GEF.B, GRMN, HBAN, HES, HLNE, JEF, NATH, OFLX, PFLT, PLCE, PNNT, SPR, SYBT, TR, TSLF, UNH, WHF

### Earnings Reports

AZRE, FORK, GOOS, HX, MFCB, QTM, TNP, XRF

---

^Standard ^disclaimer: ^The ^content ^in ^this ^thread ^is ^for ^information ^and ^illustrative ^purposes ^only ^and ^should ^not ^be ^regarded ^as ^investment ^advice ^or ^as ^a ^recommendation ^of ^any ^particular ^security ^or ^course ^of ^action. ^Opinions ^expressed ^herein ^are ^the ^opinions ^of ^the ^poster ^and ^are ^subject ^to ^change ^without ^notice. ^Reasonable ^people ^may ^disagree ^about ^the ^opinions ^expressed ^herein. ^In ^the ^event ^any ^of ^the ^assumptions ^used ^herein ^do ^not ^prove ^to ^be ^true, ^results ^are ^likely ^to ^vary ^substantially. ^All ^investments ^entail ^risks. ^There ^is ^no ^guarantee ^that ^investment ^strategies ^will ^achieve ^the ^desired ^results ^under ^all ^market ^conditions ^and ^each ^investor ^should ^evaluate ^their ^ability ^to ^invest ^for ^a ^long ^term ^especially ^during ^periods ^of ^a ^market ^downturn. ^Have ^a ^nice ^day.
",RobinHood,"Daily Stock Discussion Thread - June 13th, 2018",
Robot_of_Sherwood,2018-09-11 10:00:37,,4.0,"
Thinking of joining Robinhood? Use one of [our referral links](https://www.reddit.com/r/RobinHood/comments/7tsmt0/winter_2018_crypto_referral_drive_thread/) and you'll get a free share! /spam

## Important Links

- [How to Join the Stock Picking Game and Current Results](https://www.reddit.com/r/RobinHood/wiki/game/2018/detail)
- Official /r/Robinhood Discord Server: [https://discord.gg/Robinhood](https://discord.gg/Robinhood) (It's where we are most of the time)



---

### Tuesday the 11th of September

### Ex-div

AEE, APC, CSGS, DHF, ECC, FORR, FOX, FOXA, GES, HPE, HPQ, HRB, KSS, LGI, LOR, LRCX, NWS, NWSA, PSA, PSB, STFC, TXRH, UVSP, WGO

### Earnings Reports

BEBE, FARM, FRAN, LAYN, OCC, PSTI, RENN, SKIS, STRM, USAT

---

### Wednesday the 12th of September

### Ex-div

AAT, BPOP, DEA, FISI, FNV, GG, GNL, MCY, MDU, MPW, NEM, PTR, ROIC, ROST

### Earnings Reports

ACET, AXR, BRACU, COOL, DAC, ELTK, EYPT, FEIM, JRJC, OPTT, OXM, PVTL, RFIL, TLRD, XCRA

---

### Thursday the 13th of September

### Ex-div

ACV, ADP, AGM, AL, ALB, ALOT, AME, AMH, APTS, APWC, ARCC, ARES, ATRI, AVK, BAF, BANC, BBBY, BBF, BBK, BBN, BCE, BCX, BDJ, BFK, BFO, BFY, BFZ, BGR, BGT, BGY, BHK, BHV, BIG, BIT, BJZ, BKK, BLE, BLH, BLW, BME, BNY, BOE, BPK, BQH, BRY, BSD, BSE, BST, BTA, BTO, BTT, BTZ, BUI, BXMX, BXS, BYM, BZM, CAE, CBU, CCI, CFFI, CII, CIZN, CMA, CNMD, CNQ, CPK, CRWS, CSFL, CTBI, CVE, CWH, DEX, DIAX, DKS, DLR, DPZ, DVN, ECA, EE, EFF, EFSC, EFT, EGF, EHT, EMN, ENS, EOS, ESND, ESRT, ESSA, ETB, ETG, ETJ, ETO, ETV, ETW, ETY, EVC, EVF, EVG, EVT, EXD, EXG, EXR, FBSS, FFG, FIS, FMNB, FNF, FRA, GAB, GATX, GBAB, GDL, GDV, GGM, GHY, GILD, GIM, GNT, GOF, GPK, GPN, GRMN, GRX, GUT, GWRS, HEQ, HI, HLNE, HMN, HOFT, HPF, HPI, HPS, HRTG, HTD, HTY, HUN, HWBK, HYT, ICBK, IHIT, IIIN, ISD, IVH, JCE, JCS, JDD, JE, JFR, JGH, JHB, JHD, JHI, JHS, JHY, JJSF, JLS, JMT, JPC, JPI, JPS, JQC, JRI, JRO, JRS, JSD, JTA, JTD, KIO, KNL, KO, LAMR, M, MAXR, MBFI, MBIN, MCA, MEN, MEOH, MHD, MMD, MNE, MO, MRCC, MRTN, MSI, MSL, MUE, MUI, MUS, NAD, NBB, NBD, NCB, NCV, NCZ, NDAQ, NEA, NEV, NHA, NID, NIQ, NJV, NKG, NKX, NMFC, NMS, NMZ, NOV, NRK, NSA, NSL, NTRS, NUV, NUW, NVG, NWE, NX, NXJ, NXR, NXRT, NYV, NZF, OBNK, OCSI, OCSL, OFS, OLBK, OLED, OPP, OXSQ, PB, PCH, PCI, PCK, PCN, PCQ, PDI, PFBI, PFN, PGP, PGZ, PKG, PKO, PMF, PML, PMX, PNF, PNI, POL, PTY, PYN, PZC, QQQX, QTRH, RCI, RIV, RIVE, RNR, RNST, RRC, RRR, RVT, RWT, RYAM, RYN, SAH, SAMG, SCI, SFL, SFNC, SJR, SLCA, SMMF, SNDR, SOHO, SPTN, SPXX, SSP, STC, STRT, TCBK, TCPC, TCRD, TDS, TECK, TEI, TG, THG, TIER, TROW, TSLX, TXT, UBSI, UCBI, UE, UGI, UNTY, UTMD, VBF, VGI, VLY, VSH, VTA, VVR, WH, WIA, WIW, WOR, WRE, WU, WWE, WY, WYND, XEL, XL, ZTR

### Earnings Reports

ABIL, ADBE, AMRK, ARCT, BRC, CHKE, CNTF, CPAH, CRVP, CSBR, DTEA, ESP, FRED, GEC, GLBS, IPIX, JVA, KANG, KR, LOVE, LPTH, MFCB, ORPN, PCYG, PTN, RLGT, SANW, SHLD, SMMT, SPA, TISA, UWN, VALU, VNCE

---

^Standard ^disclaimer: ^The ^content ^in ^this ^thread ^is ^for ^information ^and ^illustrative ^purposes ^only ^and ^should ^not ^be ^regarded ^as ^investment ^advice ^or ^as ^a ^recommendation ^of ^any ^particular ^security ^or ^course ^of ^action. ^Opinions ^expressed ^herein ^are ^the ^opinions ^of ^the ^poster ^and ^are ^subject ^to ^change ^without ^notice. ^Reasonable ^people ^may ^disagree ^about ^the ^opinions ^expressed ^herein. ^In ^the ^event ^any ^of ^the ^assumptions ^used ^herein ^do ^not ^prove ^to ^be ^true, ^results ^are ^likely ^to ^vary ^substantially. ^All ^investments ^entail ^risks. ^There ^is ^no ^guarantee ^that ^investment ^strategies ^will ^achieve ^the ^desired ^results ^under ^all ^market ^conditions ^and ^each ^investor ^should ^evaluate ^their ^ability ^to ^invest ^for ^a ^long ^term ^especially ^during ^periods ^of ^a ^market ^downturn. ^Have ^a ^nice ^day.
",RobinHood,"Daily Stock Discussion Thread - September 11th, 2018",
Robot_of_Sherwood,2018-09-12 10:00:41,,3.0,"
Thinking of joining Robinhood? Use one of [our referral links](https://www.reddit.com/r/RobinHood/comments/7tsmt0/winter_2018_crypto_referral_drive_thread/) and you'll get a free share! /spam

## Important Links

- [How to Join the Stock Picking Game and Current Results](https://www.reddit.com/r/RobinHood/wiki/game/2018/detail)
- Official /r/Robinhood Discord Server: [https://discord.gg/Robinhood](https://discord.gg/Robinhood) (It's where we are most of the time)



---

### Wednesday the 12th of September

### Ex-div

AAT, BPOP, DEA, FISI, FNV, GG, GNL, MCY, MDU, MPW, NEM, PTR, ROIC, ROST

### Earnings Reports

ACET, BRACU, COOL, ELTK, EYPT, OPTT, OXM, PVTL, RFIL, TLRD, USAT

---

### Thursday the 13th of September

### Ex-div

ACV, ADP, AGM, AL, ALB, ALOT, AME, AMH, APTS, APWC, ARCC, ARES, ATRI, AVK, BAF, BANC, BBBY, BBF, BBK, BBN, BCE, BCX, BDJ, BFK, BFO, BFY, BFZ, BGR, BGT, BGY, BHK, BHV, BIG, BIT, BJZ, BKK, BLE, BLH, BLW, BME, BNY, BOE, BPK, BQH, BRY, BSD, BSE, BST, BTA, BTO, BTT, BTZ, BUI, BXMX, BXS, BYM, BZM, CAE, CBU, CCI, CFFI, CII, CIZN, CMA, CNMD, CNQ, CPK, CRWS, CSFL, CTBI, CVE, CWH, DEX, DIAX, DKS, DLR, DPZ, DVN, ECA, EE, EFF, EFSC, EFT, EGF, EHT, EMN, ENS, EOS, ESND, ESRT, ESSA, ETB, ETG, ETJ, ETO, ETV, ETW, ETY, EVC, EVF, EVG, EVT, EXD, EXG, EXR, FBSS, FFG, FIS, FMNB, FNF, FRA, GAB, GATX, GBAB, GDL, GDV, GGM, GHY, GILD, GIM, GNT, GOF, GPK, GPN, GRMN, GRX, GUT, GWRS, HEQ, HI, HLNE, HMN, HOFT, HPF, HPI, HPS, HRTG, HTD, HTY, HUN, HWBK, HYT, ICBK, IHIT, IIIN, ISD, IVH, JCE, JCS, JDD, JE, JFR, JGH, JHB, JHD, JHI, JHS, JHY, JJSF, JLS, JMT, JPC, JPI, JPS, JQC, JRI, JRO, JRS, JSD, JTA, JTD, KIO, KNL, KO, LAMR, M, MAXR, MBFI, MBIN, MCA, MEN, MEOH, MHD, MMD, MNE, MO, MRCC, MRTN, MSI, MSL, MUE, MUI, MUS, NAD, NBB, NBD, NCB, NCV, NCZ, NDAQ, NEA, NEV, NHA, NID, NIQ, NJV, NKG, NKX, NMFC, NMS, NMZ, NOV, NRK, NSA, NSL, NTRS, NUV, NUW, NVG, NWE, NX, NXJ, NXR, NXRT, NYV, NZF, OBNK, OCSI, OCSL, OFS, OLBK, OLED, OPP, OXSQ, PB, PCH, PCI, PCK, PCN, PCQ, PDI, PFBI, PFN, PGP, PGZ, PKG, PKO, PMF, PML, PMX, PNF, PNI, POL, PTY, PYN, PZC, QQQX, QTRH, RCI, RIV, RIVE, RNR, RNST, RRC, RRR, RVT, RWT, RYAM, RYN, SAH, SAMG, SCI, SFL, SFNC, SJR, SLCA, SMMF, SNDR, SOHO, SPTN, SPXX, SSP, STC, STRT, TCBK, TCPC, TCRD, TDS, TECK, TEI, TG, THG, TIER, TROW, TSLX, TXT, UBSI, UCBI, UE, UGI, UNTY, UTMD, VBF, VGI, VLY, VSH, VTA, VVR, WH, WIA, WIW, WOR, WRE, WU, WWE, WY, WYND, XEL, ZTR

### Earnings Reports

ABIL, ADBE, AMRK, ARCT, BRC, CHKE, CNTF, CPAH, CRVP, CSBR, DTEA, ESP, FEIM, FRED, GEC, GLBS, IPIX, JRJC, JVA, KR, LOVE, LPTH, MFCB, ORPN, PCYG, PTN, RLGT, SANW, SHLD, SMMT, SPA, TISA, UWN, VALU, VNCE

---

### Friday the 14th of September

### Ex-div

AFT, AIF, AIG, AIMC, ALLE, APH, ARR, BKCC, CAL, CATO, CCD, CGO, CHI, CHMG, CHS, CHW, CSQ, CSWC, DAKT, DPG, DTE, EDF, EDI, EDUC, EOD, FCNCA, FFIN, GE, GEF, GEF.B, HBAN, IRM, JEF, KBR, LDOS, LEO, MRK, MTEX, MTSC, NEU, NEWT, NFJ, NIE, NSP, OMI, PFLT, PLD, PNNT, SALM, SAR, SBR, SPR, SRF, SRV, SYBT, SZC, TCO, TMO, TSLF, VIA, VIAB

### Earnings Reports

KALV, MAMS, PLAY

---

^Standard ^disclaimer: ^The ^content ^in ^this ^thread ^is ^for ^information ^and ^illustrative ^purposes ^only ^and ^should ^not ^be ^regarded ^as ^investment ^advice ^or ^as ^a ^recommendation ^of ^any ^particular ^security ^or ^course ^of ^action. ^Opinions ^expressed ^herein ^are ^the ^opinions ^of ^the ^poster ^and ^are ^subject ^to ^change ^without ^notice. ^Reasonable ^people ^may ^disagree ^about ^the ^opinions ^expressed ^herein. ^In ^the ^event ^any ^of ^the ^assumptions ^used ^herein ^do ^not ^prove ^to ^be ^true, ^results ^are ^likely ^to ^vary ^substantially. ^All ^investments ^entail ^risks. ^There ^is ^no ^guarantee ^that ^investment ^strategies ^will ^achieve ^the ^desired ^results ^under ^all ^market ^conditions ^and ^each ^investor ^should ^evaluate ^their ^ability ^to ^invest ^for ^a ^long ^term ^especially ^during ^periods ^of ^a ^market ^downturn. ^Have ^a ^nice ^day.
",RobinHood,"Daily Stock Discussion Thread - September 12th, 2018",
Robot_of_Sherwood,2018-09-13 10:00:41,,12.0,"
Thinking of joining Robinhood? Use one of [our referral links](https://www.reddit.com/r/RobinHood/comments/7tsmt0/winter_2018_crypto_referral_drive_thread/) and you'll get a free share! /spam

## Important Links

- [How to Join the Stock Picking Game and Current Results](https://www.reddit.com/r/RobinHood/wiki/game/2018/detail)
- Official /r/Robinhood Discord Server: [https://discord.gg/Robinhood](https://discord.gg/Robinhood) (It's where we are most of the time)



---

### Thursday the 13th of September

### Ex-div

ACV, ADP, AGM, AL, ALB, ALOT, AME, AMH, APTS, APWC, ARCC, ARES, ATRI, AVK, BAF, BANC, BBBY, BBF, BBK, BBN, BCE, BCX, BDJ, BFK, BFO, BFY, BFZ, BGR, BGT, BGY, BHK, BHV, BIG, BIT, BJZ, BKK, BLE, BLH, BLW, BME, BNY, BOE, BPK, BQH, BRY, BSD, BSE, BST, BTA, BTO, BTT, BTZ, BUI, BXMX, BXS, BYM, BZM, CAE, CBU, CCI, CFFI, CII, CIZN, CMA, CNMD, CNQ, CPK, CRWS, CSFL, CTBI, CVE, CWH, DEX, DIAX, DKS, DLR, DPZ, DVN, ECA, EE, EFF, EFSC, EFT, EGF, EHT, EMN, ENS, EOS, ESND, ESRT, ESSA, ETB, ETG, ETJ, ETO, ETV, ETW, ETY, EVC, EVF, EVG, EVT, EXD, EXG, EXR, FBSS, FFG, FIS, FMNB, FNF, FRA, GAB, GATX, GBAB, GDL, GDV, GGM, GHY, GILD, GIM, GNT, GOF, GPK, GPN, GRMN, GRX, GUT, GWRS, HEQ, HI, HLNE, HMN, HOFT, HPF, HPI, HPS, HRTG, HTD, HTY, HUN, HWBK, HYT, ICBK, IHIT, IIIN, ISD, IVH, JCE, JCS, JDD, JE, JFR, JGH, JHB, JHD, JHI, JHS, JHY, JJSF, JLS, JMT, JPC, JPI, JPS, JQC, JRI, JRO, JRS, JSD, JTA, JTD, KIO, KNL, KO, LAMR, M, MAXR, MBFI, MBIN, MCA, MEN, MEOH, MHD, MMD, MNE, MO, MRCC, MRTN, MSI, MSL, MUE, MUI, MUS, NAD, NBB, NBD, NCB, NCV, NCZ, NDAQ, NEA, NEV, NHA, NID, NIQ, NJV, NKG, NKX, NMFC, NMS, NMZ, NOV, NRK, NSA, NSL, NTRS, NUV, NUW, NVG, NWE, NX, NXJ, NXR, NXRT, NYV, NZF, OBNK, OCSI, OCSL, OFS, OLBK, OLED, OPP, OXSQ, PB, PCH, PCI, PCK, PCN, PCQ, PDI, PFBI, PFN, PGP, PGZ, PKG, PKO, PMF, PML, PMX, PNF, PNI, POL, PTY, PYN, PZC, QQQX, QTRH, RCI, RIV, RIVE, RNR, RNST, RRC, RRR, RVT, RWT, RYAM, RYN, SAH, SAMG, SCI, SFL, SFNC, SJR, SLCA, SMMF, SNDR, SOHO, SPTN, SPXX, SSP, STC, STRT, TCBK, TCPC, TCRD, TDS, TECK, TEI, TG, THG, TIER, TROW, TSLX, TXT, UBSI, UCBI, UE, UGI, UNTY, UTMD, VBF, VGI, VLY, VSH, VTA, VVR, WH, WIA, WIW, WOR, WRE, WU, WWE, WY, WYND, XEL, ZTR

### Earnings Reports

ABIL, ADBE, AMRK, ARCT, BRC, CHKE, CNTF, CPAH, CRVP, CSBR, DTEA, FEIM, FRED, GEC, GLBS, IPIX, JRJC, JVA, KR, LOVE, LPTH, MFCB, ORPN, PCYG, PTN, RLGT, SANW, SHLD, SMMT, SPA, TISA, UWN, VNCE

---

### Friday the 14th of September

### Ex-div

AFT, AIF, AIG, AIMC, ALLE, APH, ARR, BKCC, CAL, CATO, CCD, CGO, CHI, CHMG, CHS, CHW, CSQ, CSWC, DAKT, DPG, DTE, EDF, EDI, EDUC, EOD, FCNCA, FFIN, GE, GEF, GEF.B, HBAN, IRM, JEF, KBR, LDOS, LEO, MRK, MTEX, MTSC, NEU, NEWT, NFJ, NIE, NSP, OMI, PFLT, PLD, PNNT, SALM, SAR, SBR, SPR, SRF, SRV, SYBT, SZC, TCO, TMO, TSLF, VIA, VIAB

### Earnings Reports

KALV, MAMS, PLAY

---

^Standard ^disclaimer: ^The ^content ^in ^this ^thread ^is ^for ^information ^and ^illustrative ^purposes ^only ^and ^should ^not ^be ^regarded ^as ^investment ^advice ^or ^as ^a ^recommendation ^of ^any ^particular ^security ^or ^course ^of ^action. ^Opinions ^expressed ^herein ^are ^the ^opinions ^of ^the ^poster ^and ^are ^subject ^to ^change ^without ^notice. ^Reasonable ^people ^may ^disagree ^about ^the ^opinions ^expressed ^herein. ^In ^the ^event ^any ^of ^the ^assumptions ^used ^herein ^do ^not ^prove ^to ^be ^true, ^results ^are ^likely ^to ^vary ^substantially. ^All ^investments ^entail ^risks. ^There ^is ^no ^guarantee ^that ^investment ^strategies ^will ^achieve ^the ^desired ^results ^under ^all ^market ^conditions ^and ^each ^investor ^should ^evaluate ^their ^ability ^to ^invest ^for ^a ^long ^term ^especially ^during ^periods ^of ^a ^market ^downturn. ^Have ^a ^nice ^day.
",RobinHood,"Daily Stock Discussion Thread - September 13th, 2018",
Robot_of_Sherwood,2018-12-12 11:00:42,,1.0,"
Thinking of joining Robinhood? Use one of [our referral links](https://www.reddit.com/r/RobinHood/comments/7tsmt0/winter_2018_crypto_referral_drive_thread/) and you'll get a free share! /spam

## Important Links

- [How to Join the Stock Picking Game and Current Results](https://www.reddit.com/r/RobinHood/wiki/game/2018/detail)
- Official /r/Robinhood Discord Server: [https://discord.gg/Robinhood](https://discord.gg/Robinhood) (It's where we are most of the time)



---

### Wednesday the 12th of December

### Ex-div

AAT, ACV, AL, BAF, BBF, BBK, BBN, BFK, BFO, BFY, BFZ, BGT, BHK, BHV, BIT, BJZ, BKK, BLE, BLH, BLW, BNY, BPK, BQH, BSD, BSE, BTA, BTO, BTT, BTZ, BYM, BZM, DBL, DEA, DSL, ECC, EGF, EHT, EVF, FISI, FRA, GG, GNL, HEQ, HPF, HPI, HPQ, HPS, HTD, HTY, HYT, JHI, JHS, MAV, MCA, MCY, MDU, MEN, MERC, MHD, MHI, MNE, MPW, MUE, MUI, MUS, NBR, NCV, NCZ, NRIM, NSP, PCI, PCK, PCN, PCQ, PDI, PFN, PGP, PHD, PHT, PKO, PMF, PML, PMX, PNF, PNI, PTY, PYN, PZC, RGT, RVT, STC, VGI, ZTR

### Earnings Reports

AVXL, CPAH, FEIM, GENC, NDSN, OXM, PLAB, SKIS, STCN, TLRD, TWMC, VRA

---

### Thursday the 13th of December

### Ex-div

ADP, ADT, AEO, AGM, ALB, ALOT, AMSF, APTS, ARCC, AVK, BBBY, BBDC, BCE, BIG, BR, BXMX, BXS, CAE, CARO, CBU, CCD, CCI, CFFI, CGO, CHI, CHW, CIZN, CMA, CMCT, CMFN, CNMD, CPK, CRWS, CSFL, CSQ, CSWC, CTBI, CVE, DEX, DIAX, DKS, DLR, DPZ, DVN, ECA, EDF, EDI, EE, EFSC, ENS, EOT, ESND, ESSA, EVC, EXR, FBSS, FFG, FFIN, FHN, FIS, FMNB, FNF, GATX, GBAB, GGM, GHY, GILD, GLNG, GLPI, GOF, GPK, GPN, GRMN, GWRS, HCAP, HLNE, HOG, HRC, HRTG, HUN, HWBK, ICBK, ICE, IHIT, IIIN, INT, ISD, IVH, JCE, JDD, JFR, JGH, JHB, JHD, JHY, JLS, JMT, JPC, JPI, JPS, JQC, JRI, JRO, JRS, JRVR, JSD, JTA, JTD, KIO, KNL, LEG, LEO, M, MAXR, MBFI, MBIN, MFSF, MGU, MMD, MOV, MRCC, MSI, MSL, NAC, NAD, NAN, NBB, NCB, NDAQ, NEA, NEV, NHA, NID, NIQ, NJR, NJV, NKG, NKX, NMFC, NMS, NMZ, NPN, NRK, NSA, NSL, NTRS, NUV, NUW, NVG, NWE, NXJ, NXPI, NXR, NYMT, NYV, NZF, OBNK, OLBK, OLED, OPP, PB, PCAR, PFBI, POL, QQQX, QTRH, RIVE, RNR, ROIC, RRC, RRR, RWT, SAH, SAMG, SCI, SFNC, SITC, SJR, SLCA, SMMF, SNDR, SOHO, SPXX, SSP, TCBK, TCRD, TDS, TECK, TG, TIER, TROW, TSLX, TXT, UBSI, UCBI, UE, UGI, UNTY, UTMD, VBF, VLY, VTA, VVI, VVR, WH, WIA, WIW, WMB, WOR, WSBC, WWE, WYND

### Earnings Reports

ADBE, ANFI, BYSI, CHKE, CIEN, CIVI, COST, DLHC, DTEA, FRED, GTIM, LEE, LEVB, LITB, LRAD, MRUS, RICK, RVLT, SKYS, SODA, SVA, VERU, VNCE

---

### Friday the 14th of December

### Ex-div

AFT, AIF, AIMC, ALLE, APH, ARES, ARR, BANC, BCX, BDC, BDJ, BGR, BGY, BME, BOE, BRY, BST, BUI, CHRW, CII, CPT, CWH, DPG, DTE, EGIF, EMN, EOD, ESRT, FCNCA, GIM, GROW, HES, HI, HMN, HOFT, HPP, IRM, JBT, JCI, JE, KBR, LAMR, LDOS, MCN, MEOH, MRK, MTSC, NEU, NX, NXRT, OCSI, OCSL, OFS, OMI, OXSQ, PKG, PLCE, QSR, RVI, RYAM, RYN, SAR, SBR, SELF, SOI, SPR, SPTN, SRF, SRV, STK, SYBT, SZC, TCO, TCPC, TEI, THG, TMO, TR, TSLF, VAM, VIA, VIAB, WU

### Earnings Reports

ASFI, CNTF, FORD, OHRP, RCON, RENN, SGOC, UBA

---

^Standard ^disclaimer: ^The ^content ^in ^this ^thread ^is ^for ^information ^and ^illustrative ^purposes ^only ^and ^should ^not ^be ^regarded ^as ^investment ^advice ^or ^as ^a ^recommendation ^of ^any ^particular ^security ^or ^course ^of ^action. ^Opinions ^expressed ^herein ^are ^the ^opinions ^of ^the ^poster ^and ^are ^subject ^to ^change ^without ^notice. ^Reasonable ^people ^may ^disagree ^about ^the ^opinions ^expressed ^herein. ^In ^the ^event ^any ^of ^the ^assumptions ^used ^herein ^do ^not ^prove ^to ^be ^true, ^results ^are ^likely ^to ^vary ^substantially. ^All ^investments ^entail ^risks. ^There ^is ^no ^guarantee ^that ^investment ^strategies ^will ^achieve ^the ^desired ^results ^under ^all ^market ^conditions ^and ^each ^investor ^should ^evaluate ^their ^ability ^to ^invest ^for ^a ^long ^term ^especially ^during ^periods ^of ^a ^market ^downturn. ^Have ^a ^nice ^day.
",RobinHood,"Daily Stock Discussion Thread - December 12th, 2018",
stockinvest-us,2020-09-23 09:40:01,,1.0,,StockInvest,VNCE: Signal Alert - GoldenStar identified,1.0
BuyThemWhereTheyAint,2021-02-18 15:01:01,YOLO,1.0,[removed],wallstreetbets,Vnce,1.0
BuyThemWhereTheyAint,2021-08-17 19:15:06,Technical Analysis,1.0,[removed],wallstreetbets,Vnce breaking out.,1.0
BuyThemWhereTheyAint,2021-08-17 19:53:32,Gain,1.0,[removed],wallstreetbets,Vnce breaking out on 5x avg volume.,1.0
BuyThemWhereTheyAint,2021-08-17 19:56:47,Gain,1.0,,wallstreetbets,Vnce breaking out on 5x avg volume,1.0
